{
    "projectList": [
        {
            "id": "1",
            "projectName": "House Renovation Project",
            "Value": "SR. 30000",
            "startingDate": "01/09/2018",
            "Actions": ["a" , "b" , "c"]
        },
        {
            "id": "2",
            "projectName": "House Renovation Project",
            "Value": "SR. 30000",
            "startingDate": "01/09/2018",
            "Actions": ["a" , "b" , "c"]
        },
        {
            "id": "3",
            "projectName": "House Renovation Project",
            "Value": "SR. 30000",
            "startingDate": "01/09/2018",
            "Actions": ["a" , "b" , "c"]
        },
        {
            "id": "4",
            "projectName": "House Renovation Project",
            "Value": "SR. 30000",
            "startingDate": "01/09/2018",
            "Actions": ["a" , "b" , "c"]
        },
        {
            "id": "5",
            "projectName": "House Renovation Project",
            "Value": "SR. 30000",
            "startingDate": "01/09/2018",
            "Actions": ["a" , "b" , "c"]
        }
    ]
}


